<?xml version="1.0" encoding="utf-8"?>
<!-- Generator: Adobe Illustrator 23.0.1, SVG Export Plug-In . SVG Version: 6.00 Build 0)  -->
<svg version="1.1" id="Layer_1" xmlns="http://www.w3.org/2000/svg" xmlns:xlink="http://www.w3.org/1999/xlink" x="0px" y="0px"
	 viewBox="0 0 225 225" style="enable-background:new 0 0 225 225;" xml:space="preserve">
<style type="text/css">
	.st0{fill:#93B8E5;}
</style>
<title>save</title>
<path class="st0" d="M176.9,0H164v66H43V0H0v225h225V48.1L176.9,0z M192,184H33v-62h159V184z"/>
<rect x="114" y="1" class="st0" width="26" height="49"/>
</svg>
